Tutorial • CAMeRa
…
Here we will find pleiotropy outliers from the MR analysis, and then
determine if the deviation of those outliers from the overall MR
estimates is consistent across populations

x$pleiotropy()

Outliers are detected based on whether a SNP’s Wald ratio (in a
particular population) is substantially different from the overall
estimate. The overall estimate is the combined meta-analysis across all
populations and all SNPs, unless that population’s overall MR estimate
contributed substantially to heterogeneity. In that case, deviation is
estimated based on the population’s specific MR estimate.

x$pleiotropy_outliers
#> # A tibble: 36 × 16
#>    SNP         pops    beta.x    se.x   beta.y    se.y   pval.x  pval.y       wr
#>    <chr>       <chr>    <dbl>   <dbl>    <dbl>   <dbl>    <dbl>   <dbl>    <dbl>
#>  1 10:1049422… SAS    0.0154  0.0176   3.00e-2 0.0546  1.90e- 1 2.91e-1  1.95e+0
#>  2 10:1049422… AFR    0.0732  0.0867  -1.10e-5 0.385   1.99e- 1 5.00e-1 -1.50e-4
#>  3 10:1049422… EUR    0.0238  0.00370 -7.70e-2 0.0144  6.14e-11 4.69e-8 -3.24e+0
#>  4 10:1049422… EAS    0.0253  0.00423 -2.79e-2 0.0177  1.12e- 9 5.73e-2 -1.10e+0
#>  5 11:1331520… SAS    0.00115 0.0145  -4.07e-2 0.0453  4.68e- 1 1.84e-1 -3.55e+1
#>  6 11:1331520… AFR   -0.102   0.0381  -2.18e-2 0.168   3.81e- 3 4.49e-1  2.14e-1
#>  7 11:1331520… EUR    0.0164  0.00200  4.00e-2 0.00974 1.15e-16 2.00e-5  2.44e+0
#>  8 11:1331520… EAS    0.0103  0.00451  8.29e-3 0.0189  1.13e- 2 3.30e-1  8.06e-1
#>  9 11:1169473… SAS   -0.00940 0.0267  -7.18e-2 0.0830  3.62e- 1 1.93e-1  7.64e+0
#> 10 11:1169473… AFR   -0.0268  0.0327   1.15e-1 0.144   2.06e- 1 2.12e-1 -4.28e+0
#> # ℹ 26 more rows
#> # ℹ 7 more variables: wr.se <dbl>, biv <dbl>, biv.se <dbl>, dif <dbl>,
#> #   dif.se <dbl>, Qj <dbl>, Qjpval <dbl>
…
The MR GxE model aims to estimate the horizontal pleiotropic effect
of a SNP. This is achieved by estimating its effect on the outcome in a
subset of the data where the SNP is not expected to have an association
(the zero relevance group). The cross-ancestry MR analysis can attempt
to make use of this approach by identifying variants that exhibit
heterogeneity in the instrument-exposure association across ancestries.
Those instruments can then be used to estimate the pleiotropic
association by evaluating their effect on the outcome across populations
showing differential SNP-exposure associations.

First identify examples of heterogeneity amongst instrument-exposure
associations

x$estimate_instrument_heterogeneity_per_variant()
#> # A tibble: 373 × 5
#> # Groups:   SNP [373]
#>    SNP                Qdf      Q    Qpval     Qfdr
#>    <chr>            <dbl>  <dbl>    <dbl>    <dbl>
#>  1 10:104942244_G_T     3  0.650 0.885    0.885   
#>  2 10:118650996_C_T     3 17.7   0.000502 0.000502
#>  3 10:134007008_A_C     3  8.12  0.0436   0.0436  
#>  4 10:16750129_G_T      3  0.510 0.917    0.917   
#>  5 10:18573654_A_G      3  6.63  0.0847   0.0847  
#>  6 10:21830104_A_G      3  3.19  0.363    0.363   
#>  7 10:33955430_C_T      3 13.5   0.00375  0.00375 
#>  8 10:53673286_A_G      3  4.26  0.235    0.235   
#>  9 10:61842645_C_T      3  6.16  0.104    0.104   
#> 10 10:65191645_G_T      3  0.621 0.892    0.892   
#> # ℹ 363 more rows
x$instrument_heterogeneity_per_variant %>% dplyr::filter(Qfdr < 0.05)
#> # A tibble: 95 × 5
#> # Groups:   SNP [95]
#>    SNP                Qdf     Q      Qpval       Qfdr
#>    <chr>            <dbl> <dbl>      <dbl>      <dbl>
#>  1 10:118650996_C_T     3 17.7  0.000502   0.000502  
#>  2 10:134007008_A_C     3  8.12 0.0436     0.0436    
#>  3 10:33955430_C_T      3 13.5  0.00375    0.00375   
#>  4 10:87490850_A_G      3  8.51 0.0365     0.0365    
#>  5 10:99772885_A_G      3 18.8  0.000298   0.000298  
#>  6 11:130795698_G_T     3 14.5  0.00232    0.00232   
#>  7 11:13315205_C_T      3 11.9  0.00786    0.00786   
#>  8 11:2858440_A_G       3 29.5  0.00000179 0.00000179
#>  9 11:43648368_G_T      3 12.4  0.00627    0.00627   
#> 10 11:45420233_A_G      3  8.59 0.0352     0.0352    
#> # ℹ 85 more rows

Next perform MR GxE (may take a couple of minutes while bootstraping
standard errors)

x$mrgxe()
#> # A tibble: 95 × 9
#> # Groups:   SNP [95]
#>    SNP                      a       b   a_se  b_se a_pval b_pval   a_mean b_mean
#>    <chr>                <dbl>   <dbl>  <dbl> <dbl>  <dbl>  <dbl>    <dbl>  <dbl>
#>  1 10:118650996_C_T   4.50e-2  2.14   0.0257  1.99 0.0398 0.140   5.11e-2  2.12 
#>  2 10:134007008_A_C   3.26e-3  0.805  0.0272  2.13 0.452  0.353   1.98e-3  0.482
#>  3 10:33955430_C_T    6.10e-3 -0.195  0.0374  1.70 0.435  0.454   1.04e-2 -0.349
#>  4 10:87490850_A_G   -1.94e-2 -0.0305 0.0437  1.82 0.329  0.493  -2.79e-2 -0.218
#>  5 10:99772885_A_G   -1.95e-2 -1.48   0.0268  1.77 0.233  0.202  -2.39e-2 -1.45 
#>  6 11:130795698_G_T  -1.10e-2  2.17   0.0232  1.46 0.318  0.0686 -9.49e-3  1.96 
#>  7 11:13315205_C_T    1.68e-3  0.283  0.0261  1.89 0.474  0.441   2.00e-4  0.364
#>  8 11:2858440_A_G    -8.48e-2  1.42   0.114   3.08 0.229  0.322  -7.73e-2  0.845
#>  9 11:43648368_G_T    1.64e-2  1.53   0.0309  1.74 0.298  0.190   1.12e-2  0.965
#> 10 11:45420233_A_G    1.75e-5 -0.248  0.0374  2.43 0.500  0.459  -1.08e-2  0.406
#> # ℹ 85 more rows
x$mrgxe_res
#> # A tibble: 95 × 9
#> # Groups:   SNP [95]
#>    SNP                      a       b   a_se  b_se a_pval b_pval   a_mean b_mean
#>    <chr>                <dbl>   <dbl>  <dbl> <dbl>  <dbl>  <dbl>    <dbl>  <dbl>
#>  1 10:118650996_C_T   4.50e-2  2.14   0.0257  1.99 0.0398 0.140   5.11e-2  2.12 
#>  2 10:134007008_A_C   3.26e-3  0.805  0.0272  2.13 0.452  0.353   1.98e-3  0.482
#>  3 10:33955430_C_T    6.10e-3 -0.195  0.0374  1.70 0.435  0.454   1.04e-2 -0.349
#>  4 10:87490850_A_G   -1.94e-2 -0.0305 0.0437  1.82 0.329  0.493  -2.79e-2 -0.218
#>  5 10:99772885_A_G   -1.95e-2 -1.48   0.0268  1.77 0.233  0.202  -2.39e-2 -1.45 
#>  6 11:130795698_G_T  -1.10e-2  2.17   0.0232  1.46 0.318  0.0686 -9.49e-3  1.96 
#>  7 11:13315205_C_T    1.68e-3  0.283  0.0261  1.89 0.474  0.441   2.00e-4  0.364
#>  8 11:2858440_A_G    -8.48e-2  1.42   0.114   3.08 0.229  0.322  -7.73e-2  0.845
#>  9 11:43648368_G_T    1.64e-2  1.53   0.0309  1.74 0.298  0.190   1.12e-2  0.965
#> 10 11:45420233_A_G    1.75e-5 -0.248  0.0374  2.43 0.500  0.459  -1.08e-2  0.406
#> # ℹ 85 more rows
…
